<?xml version="1.0" encoding="UTF-8" standalone="no"?>
<!-- Generator: Adobe Illustrator 19.2.0, SVG Export Plug-In . SVG Version: 6.00 Build 0)  -->

<svg
   xmlns:dc="http://purl.org/dc/elements/1.1/"
   xmlns:cc="http://creativecommons.org/ns#"
   xmlns:rdf="http://www.w3.org/1999/02/22-rdf-syntax-ns#"
   xmlns:svg="http://www.w3.org/2000/svg"
   xmlns="http://www.w3.org/2000/svg"
   xmlns:sodipodi="http://sodipodi.sourceforge.net/DTD/sodipodi-0.dtd"
   xmlns:inkscape="http://www.inkscape.org/namespaces/inkscape"
   version="1.1"
   id="Layer_1"
   x="0px"
   y="0px"
   viewBox="0 0 104 156"
   enable-background="new 0 0 104 156"
   xml:space="preserve"
   sodipodi:docname="cbs-brand.svg"
   inkscape:version="0.92.3 (2405546, 2018-03-11)"><metadata
   id="metadata885"><rdf:RDF><cc:Work
       rdf:about=""><dc:format>image/svg+xml</dc:format><dc:type
         rdf:resource="http://purl.org/dc/dcmitype/StillImage" /></cc:Work></rdf:RDF></metadata><defs
   id="defs883">
	

		
		
		
	</defs><sodipodi:namedview
   pagecolor="#ffffff"
   bordercolor="#666666"
   borderopacity="1"
   objecttolerance="10"
   gridtolerance="10"
   guidetolerance="10"
   inkscape:pageopacity="0"
   inkscape:pageshadow="2"
   inkscape:window-width="2462"
   inkscape:window-height="1545"
   id="namedview881"
   showgrid="false"
   inkscape:zoom="8.0576923"
   inkscape:cx="52"
   inkscape:cy="78"
   inkscape:window-x="98"
   inkscape:window-y="55"
   inkscape:window-maximized="1"
   inkscape:current-layer="Layer_1" />
<path
   d="M 41.3,34.1 V 42 H 23.8 18.3 v 5.5 7.9 5.5 h 5.5 17.5 v 7.9 H 10.4 V 34.1 h 30.9 m 5.5,-5.5 H 9.9 c -2.8,0 -5,2.2 -5,5 V 74.2 H 46.8 V 55.3 h -23 v -7.9 h 23 z"
   id="path870"
   inkscape:connector-curvature="0"
   style="fill:#00a1cd;fill-opacity:1" /><path
   d="m 67.3,11.4 v 17.2 5.5 h 5.5 21.3 V 68.7 H 59.4 V 11.4 h 7.9 m -0.1,49.4 h 5.5 7.9 5.5 v -5.5 -7.9 -5.5 h -5.5 -7.9 -5.5 v 5.5 7.9 5.5 M 67.8,5.9 H 53.9 V 74.2 H 99.6 V 33.6 c 0,-2.8 -2.2,-5 -5,-5 H 72.8 V 11.2 c 0,-2.8 -2.3,-5.3 -5,-5.3 z m 4.9,49.4 v -7.9 h 7.9 v 7.9 z"
   id="path872"
   inkscape:connector-curvature="0"
   style="fill:#00a1cd;fill-opacity:1" /><path
   d="m 94,86.8 v 8 H 23.8 18.3 v 5.5 7 5.5 H 23.8 94 v 33.9 H 10.4 v -7.9 h 70.3 5.5 v -5.5 -7.1 -5.5 H 80.7 10.4 V 86.8 H 94 m 5.5,-5.5 H 4.9 v 44.9 h 75.8 v 7.1 H 4.9 v 13.9 c 0,2.8 2.2,5 5,5 h 84.6 c 2.8,0 5,-2.2 5,-5 V 107.3 H 23.8 v -7 h 75.7 z"
   id="path874"
   inkscape:connector-curvature="0"
   style="fill:#00a1cd;fill-opacity:1" />
</svg>